…
#### Distinct stations

To find the numbers of distinct stations we need a news dataframe that
has both name and line variables, and use `distinct()` funtion to obtain
all unique combinations. There are 465 distinct stations in this data.

``` r
p1_df %>% 
  select(station_name, line) %>%
  distinct
```

    ## # A tibble: 465 × 2
    ##    station_name             line    
    ##    <chr>                    <chr>   
    ##  1 25th St                  4 Avenue
    ##  2 36th St                  4 Avenue
    ##  3 45th St                  4 Avenue
    ##  4 53rd St                  4 Avenue
    ##  5 59th St                  4 Avenue
    ##  6 77th St                  4 Avenue
    ##  7 86th St                  4 Avenue
    ##  8 95th St                  4 Avenue
    ##  9 9th St                   4 Avenue
    ## 10 Atlantic Av-Barclays Ctr 4 Avenue
    ## # … with 455 more rows

#### ADA Compliant Stations

To find the numbers of ADA compliant stations, we need to use the ada
variable to filter out the station that satisfy the ada compliant. Then
apply `distinct()` function again. There are 84 ADA compliant stations.

``` r
p1_df %>% 
  filter(ada == TRUE) %>%
  select(station_name, line) %>%
  distinct
```

    ## # A tibble: 84 × 2
    ##    station_name                   line           
    ##    <chr>                          <chr>          
    ##  1 Atlantic Av-Barclays Ctr       4 Avenue       
    ##  2 DeKalb Av                      4 Avenue       
    ##  3 Pacific St                     4 Avenue       
    ##  4 Grand Central                  42nd St Shuttle
    ##  5 34th St                        6 Avenue       
    ##  6 47-50th Sts Rockefeller Center 6 Avenue       
    ##  7 Church Av                      6 Avenue       
    ##  8 21st St                        63rd Street    
    ##  9 Lexington Av                   63rd Street    
    ## 10 Roosevelt Island               63rd Street    
    ## # … with 74 more rows
…
Create two new variables route number and route name using
`pivot_longer()`, then filter out distinct stations that serve A. There
are 60 distinct stations that serve A.

``` r
p1_df %>% pivot_longer(route1:route11,
                       names_to = "station_number",
                       values_to = "route_name") %>%
  filter(route_name == "A") %>%
  select(station_name, line) %>%
  distinct
```

    ## # A tibble: 60 × 2
    ##    station_name                  line           
    ##    <chr>                         <chr>          
    ##  1 Times Square                  42nd St Shuttle
    ##  2 125th St                      8 Avenue       
    ##  3 145th St                      8 Avenue       
    ##  4 14th St                       8 Avenue       
    ##  5 168th St - Washington Heights 8 Avenue       
    ##  6 175th St                      8 Avenue       
    ##  7 181st St                      8 Avenue       
    ##  8 190th St                      8 Avenue       
    ##  9 34th St                       8 Avenue       
    ## 10 42nd St                       8 Avenue       
    ## # … with 50 more rows
…
#### Combining two dataframe

First add new column “trash_wheel” to both dataframe, assign “mr” to
Mr.Trash Wheel, and “professor” to Professor.Trash Wheel. Then use
`bind_rows()` to combine two data.

``` r
p2_df1$trash_wheel <- c("mr")
p2_df2$trash_wheel <- c("professor")
p2_df3 <- bind_rows(p2_df1, p2_df2) %>%
  janitor::clean_names()
p2_df3
```

    ## # A tibble: 641 × 15
    ##    dumpster month  year date                weight_tons volume…¹ plast…² polys…³
    ##       <dbl> <chr> <int> <dttm>                    <dbl>    <dbl>   <dbl>   <dbl>
    ##  1        1 May    2014 2014-05-16 00:00:00        4.31       18    1450    1820
    ##  2        2 May    2014 2014-05-16 00:00:00        2.74       13    1120    1030
    ##  3        3 May    2014 2014-05-16 00:00:00        3.45       15    2450    3100
    ##  4        4 May    2014 2014-05-17 00:00:00        3.1        15    2380    2730
    ##  5        5 May    2014 2014-05-17 00:00:00        4.06       18     980     870
    ##  6        6 May    2014 2014-05-20 00:00:00        2.71       13    1430    2140
    ##  7        7 May    2014 2014-05-21 00:00:00        1.91        8     910    1090
    ##  8        8 May    2014 2014-05-28 00:00:00        3.7        16    3580    4310
    ##  9        9 June   2014 2014-06-05 00:00:00        2.52       14    2400    2790
    ## 10       10 June   2014 2014-06-11 00:00:00        3.76       18    1340    1730
    ## # … with 631 more rows, 7 more variables: cigarette_butts <dbl>,
    ## #   glass_bottles <dbl>, grocery_bags <dbl>, chip_bags <dbl>,
    ## #   sports_balls <int>, homes_powered <dbl>, trash_wheel <chr>, and abbreviated
    ## #   variable names ¹​volume_cubic_yards, ²​plastic_bottles, ³​polystyrene
…
